<?xml version="1.0" encoding="UTF-8" standalone="no"?>
<!-- Generator: Adobe Illustrator 19.0.0, SVG Export Plug-In . SVG Version: 6.00 Build 0)  -->

<svg
   xmlns:ns2="http://ns.adobe.com/AdobeIllustrator/10.0/"
   xmlns:dc="http://purl.org/dc/elements/1.1/"
   xmlns:cc="http://creativecommons.org/ns#"
   xmlns:rdf="http://www.w3.org/1999/02/22-rdf-syntax-ns#"
   xmlns:svg="http://www.w3.org/2000/svg"
   xmlns="http://www.w3.org/2000/svg"
   xmlns:sodipodi="http://sodipodi.sourceforge.net/DTD/sodipodi-0.dtd"
   xmlns:inkscape="http://www.inkscape.org/namespaces/inkscape"
   version="1.1"
   id="Capa_1"
   x="0px"
   y="0px"
   viewBox="0 0 58 58"
   style="enable-background:new 0 0 58 58;"
   xml:space="preserve"
   sodipodi:docname="pacotes.svg"
   inkscape:version="0.92.1 r15371"><metadata
     id="metadata59"><rdf:RDF><cc:Work
         rdf:about=""><dc:format>image/svg+xml</dc:format><dc:type
           rdf:resource="http://purl.org/dc/dcmitype/StillImage" /><dc:title></dc:title></cc:Work></rdf:RDF></metadata><defs
     id="defs57"><linearGradient
       id="linearGradient8311-06"><stop
         offset="0"
         style="stop-color:#a9a3d4;stop-opacity:1"
         id="stop8313-6" /><stop
         id="stop4462"
         style="stop-color:#87baff;stop-opacity:1"
         offset="0.47001833" /><stop
         offset="1"
         style="stop-color:#89ec85;stop-opacity:1"
         id="stop8315-2" /></linearGradient><linearGradient
       id="linearGradient4915"><stop
         id="stop4917"
         offset="0"
         style="stop-color:#8645a3;stop-opacity:1" /><stop
         style="stop-color:#d164ff;stop-opacity:1"
         offset="1"
         id="stop4919" /></linearGradient><linearGradient
       id="linearGradient3687-2"><stop
         style="stop-color:#1a1a1a;stop-opacity:1"
         offset="0"
         id="stop3689-6" /><stop
         id="stop3691-8"
         offset="0.11054216"
         style="stop-color:#2c2c2e;stop-opacity:1" /><stop
         id="stop3693-8"
         offset="0.29001436"
         style="stop-color:#2b2b2d;stop-opacity:1" /><stop
         id="stop3695-4"
         offset="0.5118711"
         style="stop-color:#2a2b2d;stop-opacity:1" /><stop
         id="stop3699-86"
         offset="0.75173318"
         style="stop-color:#2b2b2d;stop-opacity:1" /><stop
         style="stop-color:#323232;stop-opacity:1"
         offset="0.89659214"
         id="stop3701-8" /><stop
         style="stop-color:#171717;stop-opacity:1"
         offset="1"
         id="stop3703-9" /></linearGradient><linearGradient
       id="linearGradient4642"><stop
         offset="0"
         style="stop-color:#0bac83;stop-opacity:1"
         id="stop4644" /><stop
         offset="1"
         style="stop-color:#13ffaf;stop-opacity:1"
         id="stop4646" /></linearGradient><linearGradient
       id="linearGradient4179-7"><stop
         offset="0"
         style="stop-color:#e8d800;stop-opacity:1"
         id="stop4181-2" /><stop
         offset="1"
         style="stop-color:#feff68;stop-opacity:1"
         id="stop4183-1" /></linearGradient><linearGradient
       id="linearGradient4422"><stop
         id="stop4424"
         offset="0"
         style="stop-color:#ff9300;stop-opacity:1" /><stop
         id="stop4426"
         offset="1"
         style="stop-color:#ffd702;stop-opacity:1" /></linearGradient><linearGradient
       id="linearGradient8467-7"><stop
         id="stop8469-4"
         style="stop-color:#3ec896;stop-opacity:1"
         offset="0" /><stop
         id="stop8471-7"
         style="stop-color:#66d9af;stop-opacity:1"
         offset="1" /></linearGradient><linearGradient
       id="linearGradient5845"><stop
         id="stop5847"
         offset="0"
         style="stop-color:#974eb7;stop-opacity:1" /><stop
         style="stop-color:#d164ff;stop-opacity:1"
         offset="1"
         id="stop5849" /></linearGradient><linearGradient
       id="linearGradient4298"><stop
         style="stop-color:#ea3c53;stop-opacity:1"
         offset="0"
         id="stop4300" /><stop
         style="stop-color:#fc593d;stop-opacity:1"
         offset="1"
         id="stop4302" /></linearGradient></defs><sodipodi:namedview
     pagecolor="#ffffff"
     bordercolor="#666666"
     borderopacity="1"
     objecttolerance="10"
     gridtolerance="10"
     guidetolerance="10"
     inkscape:pageopacity="0"
     inkscape:pageshadow="2"
     inkscape:window-width="1024"
     inkscape:window-height="702"
     id="namedview55"
     showgrid="false"
     inkscape:zoom="4.0689655"
     inkscape:cx="5.8911587"
     inkscape:cy="31.80564"
     inkscape:window-x="0"
     inkscape:window-y="0"
     inkscape:window-maximized="1"
     inkscape:current-layer="Capa_1" /><path
     style="fill:#996B52;"
     d="M58,17H0V7.311C0,7.139,0.139,7,0.311,7h57.378C57.861,7,58,7.139,58,7.311V17z"
     id="path2" /><path
     style="fill:#6C4127;"
     d="M57.778,7H0.222C0.135,7,0.088,6.898,0.145,6.831L6,0h46l5.855,6.831C57.912,6.898,57.865,7,57.778,7  z"
     id="path4" /><rect
     x="3"
     y="17"
     style="fill:#935F42;"
     width="52"
     height="41"
     id="rect6" /><g
     id="g24" /><g
     id="g26" /><g
     id="g28" /><g
     id="g30" /><g
     id="g32" /><g
     id="g34" /><g
     id="g36" /><g
     id="g38" /><g
     id="g40" /><g
     id="g42" /><g
     id="g44" /><g
     id="g46" /><g
     id="g48" /><g
     id="g50" /><g
     id="g52" /><g
     style="stroke-width:1.31742239;stroke-miterlimit:4;stroke-dasharray:none"
     transform="matrix(1.1124629,0,0,1.1124629,-605.96808,-565.53697)"
     id="g4338-1"><g
       transform="matrix(0.84002598,0,0,0.84002598,94.722843,341.97161)"
       id="g4340-3"><g
         transform="matrix(1.016661,0,0,1.016661,-5.0483185,-3.8359534)"
         id="g4414" /><g
         id="g4304" /><g
         id="g4306" /><g
         id="g4308" /><g
         id="g4310" /><g
         id="g4312-3" /><g
         id="g4314" /><g
         id="g4316" /><g
         id="g4318" /><g
         id="g4320" /><g
         id="g4322" /><g
         id="g4324" /><g
         id="g4326" /><g
         id="g4328-3" /><g
         id="g4330-0" /><g
         id="g4332-2" /></g></g><path
     style="overflow:visible;fill:#f65785;fill-opacity:1;stroke-width:0.63391656;stroke-miterlimit:4;stroke-dasharray:none"
     inkscape:connector-curvature="0"
     ns2:knockout="Off"
     d="m 29.555125,48.692837 c -3.847991,-1.384353 -6.133594,-3.083398 -8.639576,-6.875092 -0.614947,-1.04464 -1.745719,-3.375954 -1.702894,-6.418933 -0.100085,-3.033836 1.432952,-6.529605 4.294045,-8.395137 2.762932,-1.968987 6.328472,-1.998339 8.44951,-1.220753 2.187923,0.812231 3.075218,2.165308 3.100239,2.10083 -0.06688,0.01684 1.172153,1.059076 1.724547,3.327837 0.615429,2.180705 -0.0096,5.795325 -3.017476,7.275432 -1.38339,0.741498 -3.180114,0.875747 -4.589008,0.345487 -1.408893,-0.568273 -2.431399,-1.815971 -2.772074,-3.119486 -0.74246,-2.877934 1.441132,-4.473044 2.404453,-4.636645 3.919207,-1.306883 5.904072,4.82623 1.320357,5.347828 2.089281,0.69771 4.24304,-1.446425 3.833556,-3.630498 -0.08276,-2.184555 -2.727325,-4.352749 -5.644235,-3.464011 -0.761707,0.210275 -1.915094,0.744866 -2.817786,1.947333 -0.925789,1.19525 -1.345859,3.068481 -0.864679,4.889264 0.469149,1.830888 1.895846,3.583343 3.883117,4.371034 2.007481,0.740535 4.242559,0.528816 6.088363,-0.431618 3.940378,-1.949258 4.729031,-6.69898 3.946153,-9.312265 -0.690974,-2.808645 -2.216794,-4.094837 -2.137881,-4.114566 -0.02839,0.07651 -1.125959,-1.592222 -3.838368,-2.605105 -2.65226,-0.967171 -6.787516,-0.898843 -10.098512,1.422848 -3.388465,2.173006 -5.224164,6.442992 -5.090878,9.884387 -0.04571,3.494806 1.256841,6.169683 1.967543,7.358677 2.864942,4.369109 6.147548,5.734696 10.201484,5.953152"
     id="path4159" /></svg>