<?xml version="1.0" encoding="UTF-8" standalone="no"?>
<!-- Created with Inkscape (http://www.inkscape.org/) -->

<svg
   xmlns:osb="http://www.openswatchbook.org/uri/2009/osb"
   xmlns:dc="http://purl.org/dc/elements/1.1/"
   xmlns:cc="http://creativecommons.org/ns#"
   xmlns:rdf="http://www.w3.org/1999/02/22-rdf-syntax-ns#"
   xmlns:svg="http://www.w3.org/2000/svg"
   xmlns="http://www.w3.org/2000/svg"
   xmlns:xlink="http://www.w3.org/1999/xlink"
   xmlns:sodipodi="http://sodipodi.sourceforge.net/DTD/sodipodi-0.dtd"
   xmlns:inkscape="http://www.inkscape.org/namespaces/inkscape"
   width="48"
   height="48"
   id="svg5453"
   version="1.1"
   inkscape:version="0.92.1 r15371"
   sodipodi:docname="ajustesJanelas.svg">
  <defs
     id="defs5455">
    <linearGradient
       id="linearGradient8311-06">
      <stop
         id="stop8313-6"
         style="stop-color:#a9a3d4;stop-opacity:1"
         offset="0" />
      <stop
         offset="0.47001833"
         style="stop-color:#87baff;stop-opacity:1"
         id="stop4462" />
      <stop
         id="stop8315-2"
         style="stop-color:#89ec85;stop-opacity:1"
         offset="1" />
    </linearGradient>
    <linearGradient
       gradientUnits="userSpaceOnUse"
       y2="23.5"
       x2="47"
       y1="23.5"
       x1="0"
       id="linearGradient4460"
       xlink:href="#linearGradient8311-06"
       inkscape:collect="always" />
    <linearGradient
       id="linearGradient4915">
      <stop
         style="stop-color:#8645a3;stop-opacity:1"
         offset="0"
         id="stop4917" />
      <stop
         id="stop4919"
         offset="1"
         style="stop-color:#d164ff;stop-opacity:1" />
    </linearGradient>
    <linearGradient
       id="linearGradient3687-2">
      <stop
         id="stop3689-6"
         offset="0"
         style="stop-color:#1a1a1a;stop-opacity:1" />
      <stop
         style="stop-color:#2c2c2e;stop-opacity:1"
         offset="0.11054216"
         id="stop3691-8" />
      <stop
         style="stop-color:#2b2b2d;stop-opacity:1"
         offset="0.29001436"
         id="stop3693-8" />
      <stop
         style="stop-color:#2a2b2d;stop-opacity:1"
         offset="0.5118711"
         id="stop3695-4" />
      <stop
         style="stop-color:#2b2b2d;stop-opacity:1"
         offset="0.75173318"
         id="stop3699-86" />
      <stop
         id="stop3701-8"
         offset="0.89659214"
         style="stop-color:#323232;stop-opacity:1" />
      <stop
         id="stop3703-9"
         offset="1"
         style="stop-color:#171717;stop-opacity:1" />
    </linearGradient>
    <linearGradient
       id="linearGradient4642">
      <stop
         id="stop4644"
         style="stop-color:#0bac83;stop-opacity:1"
         offset="0" />
      <stop
         id="stop4646"
         style="stop-color:#13ffaf;stop-opacity:1"
         offset="1" />
    </linearGradient>
    <linearGradient
       id="linearGradient4179-7">
      <stop
         id="stop4181-2"
         style="stop-color:#e8d800;stop-opacity:1"
         offset="0" />
      <stop
         id="stop4183-1"
         style="stop-color:#feff68;stop-opacity:1"
         offset="1" />
    </linearGradient>
    <linearGradient
       id="linearGradient4422">
      <stop
         style="stop-color:#ff9300;stop-opacity:1"
         offset="0"
         id="stop4424" />
      <stop
         style="stop-color:#ffd702;stop-opacity:1"
         offset="1"
         id="stop4426" />
    </linearGradient>
    <linearGradient
       id="linearGradient8467-7">
      <stop
         offset="0"
         style="stop-color:#3ec896;stop-opacity:1"
         id="stop8469-4" />
      <stop
         offset="1"
         style="stop-color:#66d9af;stop-opacity:1"
         id="stop8471-7" />
    </linearGradient>
    <linearGradient
       id="linearGradient5845">
      <stop
         style="stop-color:#974eb7;stop-opacity:1"
         offset="0"
         id="stop5847" />
      <stop
         id="stop5849"
         offset="1"
         style="stop-color:#d164ff;stop-opacity:1" />
    </linearGradient>
    <linearGradient
       id="linearGradient4298">
      <stop
         id="stop4300"
         offset="0"
         style="stop-color:#ea3c53;stop-opacity:1" />
      <stop
         id="stop4302"
         offset="1"
         style="stop-color:#fc593d;stop-opacity:1" />
    </linearGradient>
    <linearGradient
       id="linearGradient4232">
      <stop
         style="stop-color:#3889e9;stop-opacity:1"
         offset="0"
         id="stop4234-0" />
      <stop
         style="stop-color:#5ea5fb;stop-opacity:1"
         offset="1"
         id="stop4236" />
    </linearGradient>
    <linearGradient
       id="linearGradient4290-1">
      <stop
         id="stop4292-9"
         offset="0"
         style="stop-color:#a5a5a5;stop-opacity:1;" />
      <stop
         id="stop4294-1"
         offset="1"
         style="stop-color:#f5f2f5;stop-opacity:1;" />
    </linearGradient>
    <linearGradient
       id="linearGradient8311-06-5">
      <stop
         offset="0"
         style="stop-color:#5fa3d4;stop-opacity:1"
         id="stop8313-6-2" />
      <stop
         offset="1"
         style="stop-color:#6bb9ff;stop-opacity:1"
         id="stop8315-2-7" />
    </linearGradient>
    <linearGradient
       osb:paint="gradient"
       id="linearGradient4207">
      <stop
         id="stop3371"
         offset="0"
         style="stop-color:#3498db;stop-opacity:1;" />
      <stop
         id="stop3373"
         offset="1"
         style="stop-color:#3498db;stop-opacity:0;" />
    </linearGradient>
    <filter
       id="filter3831"
       color-interpolation-filters="sRGB">
      <feGaussianBlur
         id="feGaussianBlur3833"
         stdDeviation="0.6375" />
    </filter>
    <clipPath
       id="clipPath3823">
      <path
         id="path3825"
         fill="#fff"
         d="m108.81 58c-1.56 0-2.81 1.254-2.81 2.812v24.375c0 1.559 1.25 2.813 2.81 2.813h24.375c1.57 0 2.82-1.254 2.82-2.812v-24.375c0-1.559-1.25-2.813-2.81-2.813h-24.375zm7.1875 4.5h10v8.75h5l-10 13.75-10-13.75h5v-8.75z" />
    </clipPath>
    <linearGradient
       id="linearGradient3812"
       y2="50.069"
       gradientUnits="userSpaceOnUse"
       x2="65.263"
       gradientTransform="matrix(0.625,0,0,0.625,78.5,32.25)"
       y1="64.205"
       x1="65.263">
      <stop
         id="stop3683"
         offset="0" />
      <stop
         id="stop3685"
         stop-opacity="0"
         offset="1" />
    </linearGradient>
    <filter
       id="filter3806"
       color-interpolation-filters="sRGB">
      <feGaussianBlur
         id="feGaussianBlur3808"
         stdDeviation="1.2" />
    </filter>
    <linearGradient
       id="linearGradient3788"
       y2="75.095"
       xlink:href="#linearGradient3737"
       gradientUnits="userSpaceOnUse"
       x2="70"
       gradientTransform="translate(0,4)"
       y1="54"
       x1="70" />
    <linearGradient
       id="linearGradient3773"
       y2="72"
       gradientUnits="userSpaceOnUse"
       x2="88"
       gradientTransform="matrix(0.9375,0,0,0.9375,-140.5,3.5)"
       y1="72"
       x1="56">
      <stop
         id="stop3780"
         stop-color="#499119"
         offset="0" />
      <stop
         id="stop3782"
         stop-color="#8fd625"
         offset="1" />
    </linearGradient>
    <linearGradient
       id="linearGradient3832"
       y2="50.069"
       xlink:href="#linearGradient3737"
       gradientUnits="userSpaceOnUse"
       x2="65.263"
       gradientTransform="matrix(0.625,0,0,0.625,28.5,31.25)"
       y1="64.205"
       x1="65.263" />
    <filter
       id="filter3174"
       color-interpolation-filters="sRGB">
      <feGaussianBlur
         id="feGaussianBlur3176"
         stdDeviation="1.71" />
    </filter>
    <linearGradient
       id="linearGradient3737">
      <stop
         id="stop3739"
         stop-color="#fff"
         offset="0" />
      <stop
         id="stop3741"
         stop-color="#fff"
         stop-opacity="0"
         offset="1" />
    </linearGradient>
    <linearGradient
       id="ButtonShadow"
       y2="7.0165"
       gradientUnits="userSpaceOnUse"
       x2="45.448"
       gradientTransform="scale(1.0059,0.99417)"
       y1="92.54"
       x1="45.448">
      <stop
         id="stop3750"
         offset="0" />
      <stop
         id="stop3752"
         stop-opacity=".58824"
         offset="1" />
    </linearGradient>
    <linearGradient
       id="linearGradient4422-9">
      <stop
         style="stop-color:#2971c3;stop-opacity:1"
         offset="0"
         id="stop4424-3" />
      <stop
         style="stop-color:#83bbff;stop-opacity:1"
         offset="1"
         id="stop4426-1" />
    </linearGradient>
    <linearGradient
       id="linearGradient5263-00">
      <stop
         offset="0"
         style="stop-color:#ffffff;stop-opacity:0"
         id="stop5265-5" />
      <stop
         offset="1"
         style="stop-color:#d5edff;stop-opacity:1"
         id="stop5267-8" />
    </linearGradient>
    <linearGradient
       inkscape:collect="always"
       xlink:href="#linearGradient4227-3"
       id="linearGradient4288"
       gradientUnits="userSpaceOnUse"
       x1="355.85571"
       y1="547.82031"
       x2="355.85571"
       y2="509.80487"
       gradientTransform="matrix(0.82788681,0,0,0.82788681,-278.52201,585.78514)" />
    <linearGradient
       id="linearGradient4227-3">
      <stop
         id="stop4229-4"
         style="stop-color:#566069;stop-opacity:1"
         offset="0" />
      <stop
         id="stop4231-6"
         style="stop-color:#6c7884;stop-opacity:1"
         offset="1" />
    </linearGradient>
    <linearGradient
       inkscape:collect="always"
       xlink:href="#linearGradient4143"
       id="linearGradient4222"
       x1="409.57144"
       y1="542.79797"
       x2="409.93887"
       y2="501.2316"
       gradientUnits="userSpaceOnUse"
       gradientTransform="matrix(1.0523327,0,0,1.0276135,-72.567725,-8.6931515)" />
    <linearGradient
       inkscape:collect="always"
       id="linearGradient4143">
      <stop
         style="stop-color:#197cf1;stop-opacity:1"
         offset="0"
         id="stop4145" />
      <stop
         style="stop-color:#20bcfa;stop-opacity:1"
         offset="1"
         id="stop4147" />
    </linearGradient>
    <linearGradient
       inkscape:collect="always"
       xlink:href="#linearGradient4143"
       id="linearGradient5433"
       gradientUnits="userSpaceOnUse"
       gradientTransform="matrix(0.57222679,0,0,0.55878524,-209.90374,740.33622)"
       x1="409.57144"
       y1="542.79797"
       x2="409.93887"
       y2="501.2316" />
    <filter
       inkscape:collect="always"
       style="color-interpolation-filters:sRGB"
       id="filter5894"
       x="-0.051584535"
       width="1.1031691"
       y="-0.068362276"
       height="1.1367246">
      <feGaussianBlur
         inkscape:collect="always"
         stdDeviation="0.5411643"
         id="feGaussianBlur5896" />
    </filter>
  </defs>
  <sodipodi:namedview
     id="base"
     pagecolor="#5a5a5a"
     bordercolor="#666666"
     borderopacity="1.0"
     inkscape:pageopacity="0"
     inkscape:pageshadow="2"
     inkscape:zoom="9.3254544"
     inkscape:cx="27.899371"
     inkscape:cy="20.363712"
     inkscape:document-units="px"
     inkscape:current-layer="g4312"
     showgrid="false"
     fit-margin-top="0"
     fit-margin-left="0"
     fit-margin-right="0"
     fit-margin-bottom="0"
     inkscape:window-width="1366"
     inkscape:window-height="707"
     inkscape:window-x="0"
     inkscape:window-y="0"
     inkscape:window-maximized="1"
     inkscape:showpageshadow="false"
     borderlayer="true"
     showguides="false"
     showborder="false">
    <inkscape:grid
       type="xygrid"
       id="grid4063" />
    <sodipodi:guide
       position="1.1650391e-05,47.999996"
       orientation="4,0"
       id="guide4146"
       inkscape:locked="false" />
    <sodipodi:guide
       position="1.1650391e-05,43.999996"
       orientation="0,48"
       id="guide4148"
       inkscape:locked="false" />
    <sodipodi:guide
       position="48.000012,43.999996"
       orientation="-4,0"
       id="guide4150"
       inkscape:locked="false" />
    <sodipodi:guide
       position="48.000012,47.999996"
       orientation="0,-48"
       id="guide4152"
       inkscape:locked="false" />
    <sodipodi:guide
       position="1.1650391e-05,4.0000264"
       orientation="4,0"
       id="guide4154"
       inkscape:locked="false" />
    <sodipodi:guide
       position="1.1650391e-05,2.6367188e-05"
       orientation="0,48"
       id="guide4156"
       inkscape:locked="false" />
    <sodipodi:guide
       position="48.000012,2.6367188e-05"
       orientation="-4,0"
       id="guide4158"
       inkscape:locked="false" />
    <sodipodi:guide
       position="48.000012,4.0000264"
       orientation="0,-48"
       id="guide4160"
       inkscape:locked="false" />
    <sodipodi:guide
       position="48.000012,48.000026"
       orientation="0,-4"
       id="guide4162"
       inkscape:locked="false" />
    <sodipodi:guide
       position="44.000012,48.000026"
       orientation="48,0"
       id="guide4164"
       inkscape:locked="false" />
    <sodipodi:guide
       position="44.000012,2.6367188e-05"
       orientation="0,4"
       id="guide4166"
       inkscape:locked="false" />
    <sodipodi:guide
       position="48.000012,2.6367188e-05"
       orientation="-48,0"
       id="guide4168"
       inkscape:locked="false" />
    <sodipodi:guide
       position="4.0000422,48.000026"
       orientation="0,-4"
       id="guide4170"
       inkscape:locked="false" />
    <sodipodi:guide
       position="4.2167969e-05,48.000026"
       orientation="48,0"
       id="guide4172"
       inkscape:locked="false" />
    <sodipodi:guide
       position="4.2167969e-05,2.6367188e-05"
       orientation="0,4"
       id="guide4174"
       inkscape:locked="false" />
    <sodipodi:guide
       position="4.0000422,2.6367188e-05"
       orientation="-48,0"
       id="guide4176"
       inkscape:locked="false" />
    <sodipodi:guide
       position="20,30"
       orientation="39.999969,0"
       id="guide4153"
       inkscape:locked="false" />
    <sodipodi:guide
       position="20.000012,4.0000264"
       orientation="0,8"
       id="guide4155"
       inkscape:locked="false" />
    <sodipodi:guide
       position="25,30"
       orientation="-39.999969,0"
       id="guide4157"
       inkscape:locked="false" />
    <sodipodi:guide
       position="28.000012,43.999996"
       orientation="0,-8"
       id="guide4159"
       inkscape:locked="false" />
    <sodipodi:guide
       position="22,11"
       orientation="5,0"
       id="guide4342"
       inkscape:locked="false" />
  </sodipodi:namedview>
  <metadata
     id="metadata5458">
    <rdf:RDF>
      <cc:Work
         rdf:about="">
        <dc:format>image/svg+xml</dc:format>
        <dc:type
           rdf:resource="http://purl.org/dc/dcmitype/StillImage" />
        <dc:title />
      </cc:Work>
    </rdf:RDF>
  </metadata>
  <g
     inkscape:label="Capa 1"
     inkscape:groupmode="layer"
     id="layer1"
     transform="translate(-384.57143,-499.798)">
    <g
       transform="translate(392.24401,-502.51656)"
       id="layer1-4"
       inkscape:label="Layer 1">
      <g
         transform="matrix(1.138587,0,0,1.138587,-3.4562036,-142.80276)"
         id="g4413"
         style="stroke-width:1.31742239;stroke-miterlimit:4;stroke-dasharray:none">
        <g
           id="g4312"
           transform="matrix(1.0539376,0,0,1.0539376,-0.91298719,-55.411661)">
          <g
             transform="matrix(0.83333358,0,0,0.83333358,-408.28112,587.90224)"
             id="layer1-0"
             inkscape:label="Capa 1">
            <g
               transform="matrix(1.1124629,0,0,1.1124629,-46.05517,-58.717878)"
               id="g4338-1">
              <g
                 transform="matrix(0.84002598,0,0,0.84002598,94.722843,341.97161)"
                 id="g4340-3">
                <g
                   transform="matrix(1.016661,0,0,1.016661,-5.0483185,-3.8359534)"
                   id="g4414" />
                <g
                   id="g4304" />
                <g
                   id="g4306" />
                <g
                   id="g4308" />
                <g
                   id="g4310" />
                <g
                   id="g4312-3" />
                <g
                   id="g4314" />
                <g
                   id="g4316" />
                <g
                   id="g4318" />
                <g
                   id="g4320" />
                <g
                   id="g4322" />
                <g
                   id="g4324" />
                <g
                   id="g4326" />
                <g
                   id="g4328-3" />
                <g
                   id="g4330-0" />
                <g
                   id="g4332-2" />
              </g>
            </g>
          </g>
          <rect
             style="opacity:1;fill:url(#linearGradient4288);fill-opacity:1;stroke:none;stroke-width:0.16557737;stroke-linecap:round;stroke-linejoin:round;stroke-miterlimit:4;stroke-dasharray:none;stroke-opacity:1"
             id="rect4195"
             width="38.333344"
             height="28.925419"
             x="-1.8140574"
             y="1010.5962"
             ry="1.3611963" />
          <circle
             r="1.5519999"
             cy="1013.7167"
             cx="33.449383"
             id="path4224"
             style="opacity:1;fill:#ffffff;fill-opacity:1;stroke:none;stroke-width:0.13795555;stroke-linecap:round;stroke-linejoin:round;stroke-miterlimit:4;stroke-dasharray:none;stroke-opacity:1" />
          <circle
             r="1.5519999"
             cy="1013.7496"
             cx="29.636618"
             id="path4224-4"
             style="opacity:1;fill:#ffffff;fill-opacity:1;stroke:none;stroke-width:0.13795555;stroke-linecap:round;stroke-linejoin:round;stroke-miterlimit:4;stroke-dasharray:none;stroke-opacity:1" />
          <circle
             r="1.5519999"
             cy="1013.7864"
             cx="25.888729"
             id="path4224-8"
             style="opacity:1;fill:#ffffff;fill-opacity:1;stroke:none;stroke-width:0.13795555;stroke-linecap:round;stroke-linejoin:round;stroke-miterlimit:4;stroke-dasharray:none;stroke-opacity:1" />
          <rect
             ry="0.89405638"
             y="1024.0863"
             x="11.302794"
             height="18.998697"
             width="25.177979"
             id="rect4195-3"
             style="opacity:1;fill:url(#linearGradient5433);fill-opacity:1;stroke:none;stroke-width:0.10875397;stroke-linecap:round;stroke-linejoin:round;stroke-miterlimit:4;stroke-dasharray:none;stroke-opacity:1" />
          <rect
             ry="0.89405644"
             y="1018.7541"
             x="3.2613893"
             height="18.998699"
             width="25.177979"
             id="rect4195-3-5"
             style="opacity:0.47341799;fill:#ffffff;fill-opacity:1;stroke:none;stroke-width:0.10875397;stroke-linecap:round;stroke-linejoin:round;stroke-miterlimit:4;stroke-dasharray:none;stroke-opacity:1;filter:url(#filter5894)" />
          <circle
             style="opacity:0.797;fill:#ffffff;fill-opacity:0.84722218;stroke:none;stroke-width:0.09061152;stroke-linecap:round;stroke-linejoin:round;stroke-miterlimit:4;stroke-dasharray:none;stroke-opacity:1"
             id="path4224-6-3"
             cx="26.423008"
             cy="1020.8036"
             r="1.0193795" />
          <circle
             style="opacity:0.797;fill:#ffffff;fill-opacity:0.84722218;stroke:none;stroke-width:0.09061152;stroke-linecap:round;stroke-linejoin:round;stroke-miterlimit:4;stroke-dasharray:none;stroke-opacity:1"
             id="path4224-4-8-5"
             cx="23.918722"
             cy="1020.8252"
             r="1.0193795" />
          <circle
             style="opacity:0.797;fill:#ffffff;fill-opacity:0.84722218;stroke:none;stroke-width:0.09061152;stroke-linecap:round;stroke-linejoin:round;stroke-miterlimit:4;stroke-dasharray:none;stroke-opacity:1"
             id="path4224-8-1-6"
             cx="21.457047"
             cy="1020.8494"
             r="1.0193795" />
          <circle
             style="opacity:1;fill:#ffffff;fill-opacity:0.84722218;stroke:none;stroke-width:0.09061151;stroke-linecap:round;stroke-linejoin:round;stroke-miterlimit:4;stroke-dasharray:none;stroke-opacity:1"
             id="path4224-6"
             cx="34.464413"
             cy="1026.1359"
             r="1.0193795" />
          <circle
             style="opacity:1;fill:#ffffff;fill-opacity:0.84722218;stroke:none;stroke-width:0.09061151;stroke-linecap:round;stroke-linejoin:round;stroke-miterlimit:4;stroke-dasharray:none;stroke-opacity:1"
             id="path4224-4-8"
             cx="31.960127"
             cy="1026.1575"
             r="1.0193795" />
          <circle
             style="opacity:1;fill:#ffffff;fill-opacity:0.84722218;stroke:none;stroke-width:0.09061151;stroke-linecap:round;stroke-linejoin:round;stroke-miterlimit:4;stroke-dasharray:none;stroke-opacity:1"
             id="path4224-8-1"
             cx="29.498451"
             cy="1026.1816"
             r="1.0193795" />
        </g>
      </g>
      <g
         style="fill:url(#linearGradient4460);fill-opacity:1"
         transform="matrix(0.48796879,0,0,0.48796879,21.356721,1026.8977)"
         id="g3" />
    </g>
  </g>
</svg>
